{"total_results": 719, "dates": {"minimum": "2015-03-04", "maximum": "2015-04-15"}, "total_pages": 36, "page": 1, "results": [{"poster_path": "/dCgm7efXDmiABSdWDHBDBx2jwmn.jpg", "title": "Furious 7", "release_date": "2015-04-03", "popularity": 38.914608099984903, "original_title": "Furious 7", "backdrop_path": "/c1OSRvorPXvGtFka7mgV6Jcw6jd.jpg", "vote_count": 269, "video": false, "adult": false, "vote_average": 7.7000000000000002, "id": 168259}, {"poster_path": "/nIQOgiHnAF9fnvqnOO0etd0YIb9.jpg", "title": "Chappie", "release_date": "2015-03-06", "popularity": 18.283835746389698, "original_title": "Chappie", "backdrop_path": "/y5lG7TBpeOMG0jxAaTK0ghZSzBJ.jpg", "vote_count": 157, "video": false, "adult": false, "vote_average": 7.0, "id": 198184}, {"poster_path": "/aBBQSC8ZECGn6Wh92gKDOakSC8p.jpg", "title": "Insurgent", "release_date": "2015-04-01", "popularity": 9.6646451186477904, "original_title": "Insurgent", "backdrop_path": "/L5QRL1O3fGs2hH1LbtYyVl8Tce.jpg", "vote_count": 254, "video": false, "adult": false, "vote_average": 7.4000000000000004, "id": 262500}, {"poster_path": "/6g7iQJAgyDn9mep98RXhLI64RcA.jpg", "title": "Batman vs. Robin", "release_date": "2015-04-14", "popularity": 8.0018868261816696, "original_title": "Batman vs. Robin", "backdrop_path": "/oERfMmGc1GJRnC8IuFUH7zpR5z5.jpg", "vote_count": 6, "video": false, "adult": false, "vote_average": 7.2999999999999998, "id": 321528}, {"poster_path": "/njPa0RO0KKmwBCGHcEOTbxljftF.jpg", "title": "The Man with the Iron Fists 2", "release_date": "2015-04-14", "popularity": 4.7108065823773204, "original_title": "The Man with the Iron Fists 2", "backdrop_path": "/nqL7K2iWoMGrDWRqq6Jgn1s56d6.jpg", "vote_count": 2, "video": false, "adult": false, "vote_average": 6.0, "id": 321494}, {"poster_path": "/vHL7MmoibJ7lO0hsoHPDu5hBcsF.jpg", "title": "Homesick", "release_date": "2015-03-27", "popularity": 5.20690187049739, "original_title": "De n\u00e6rmeste", "backdrop_path": "/mcd97AoR4PfTor8PeYvvyV4Ztb2.jpg", "vote_count": 4, "video": false, "adult": false, "vote_average": 4.0, "id": 308403}, {"poster_path": "/o1F2aloaOUufHHOsV0laA9aw9N0.jpg", "title": "Cinderella", "release_date": "2015-03-13", "popularity": 4.8543514829052299, "original_title": "Cinderella", "backdrop_path": "/xjjO3JIdneMBTsS282JffiPqfHW.jpg", "vote_count": 157, "video": false, "adult": false, "vote_average": 7.2999999999999998, "id": 150689}, {"poster_path": "/kTIZqh75b9wLWGkiamuSPNnm6jL.jpg", "title": "Home Sweet Hell", "release_date": "2015-03-13", "popularity": 4.7559063349948101, "original_title": "Home Sweet Hell", "backdrop_path": "/u7FyEha1B9vqS8EfWxLjuLBzCZa.jpg", "vote_count": 15, "video": false, "adult": false, "vote_average": 4.5999999999999996, "id": 276839}, {"poster_path": "/qrc563yL487g9THjE6lOdsHK0wc.jpg", "title": "Home", "release_date": "2015-03-27", "popularity": 4.4552854698757596, "original_title": "Home", "backdrop_path": "/6HoS2Hzcye4xGowSLTf0Pox43QW.jpg", "vote_count": 49, "video": false, "adult": false, "vote_average": 7.4000000000000004, "id": 228161}, {"poster_path": "/sa84rNBCvCFiqpnMyG7aE6pTzVC.jpg", "title": "Lost River", "release_date": "2015-04-10", "popularity": 4.3327295505374002, "original_title": "Lost River", "backdrop_path": "/kwBY65Hjqv8Rud2pvRjEOd6q38l.jpg", "vote_count": 7, "video": false, "adult": false, "vote_average": 5.4000000000000004, "id": 167810}, {"poster_path": "/4MrwJZr0R9LbyOgZqwLNmtzzxbu.jpg", "title": "It Follows", "release_date": "2015-03-27", "popularity": 3.8779907228721799, "original_title": "It Follows", "backdrop_path": "/seXjpUZxEYsRGgQQq5HvwPiu0Sv.jpg", "vote_count": 51, "video": false, "adult": false, "vote_average": 7.2000000000000002, "id": 270303}, {"poster_path": "/btbRB7BrD887j5NrvjxceRDmaot.jpg", "title": "Ex Machina", "release_date": "2015-04-10", "popularity": 4.2556860406923196, "original_title": "Ex Machina", "backdrop_path": "/9X3cDZb4GYGQeOnZHLwMcCFz2Ro.jpg", "vote_count": 39, "video": false, "adult": false, "vote_average": 7.5999999999999996, "id": 264660}, {"poster_path": "/sxrh0dqUtaJOmxKbUH99bdA5ddA.jpg", "title": "The Longest Ride", "release_date": "2015-04-10", "popularity": 3.6582031515488702, "original_title": "The Longest Ride", "backdrop_path": "/87Xa8sy0zIe16f6A2iED36shb9z.jpg", "vote_count": 5, "video": false, "adult": false, "vote_average": 8.8000000000000007, "id": 228205}, {"poster_path": "/rQOKeUqB4V0ABicPI0fhm1v5kmC.jpg", "title": "Child 44", "release_date": "2015-04-15", "popularity": 3.3545997359356701, "original_title": "Child 44", "backdrop_path": "/A2WK7mdiKHaxgE4hRyKuDIM4KGg.jpg", "vote_count": 1, "video": false, "adult": false, "vote_average": 0.0, "id": 181283}, {"poster_path": "/9myMFh0hFbWmZDDCf71hW7zCHTM.jpg", "title": "Echoes", "release_date": "2015-04-15", "popularity": 3.34980482698059, "original_title": "Echoes", "backdrop_path": "/eSDw100xYY3mQReyDTHOl2e2vW4.jpg", "vote_count": 1, "video": false, "adult": false, "vote_average": 4.0, "id": 328763}, {"poster_path": "/sOoTQhKty7SE3sF8yU0BfEnACVG.jpg", "title": "Hooligans at War: North vs South", "release_date": "2015-04-13", "popularity": 3.31731544523001, "original_title": "Hooligans at War: North vs South", "backdrop_path": "/m8A1yhr9sqbItYhxLZk6lnUhoQF.jpg", "vote_count": 1, "video": false, "adult": false, "vote_average": 10.0, "id": 331963}, {"poster_path": null, "title": "Living With Lincoln", "release_date": "2015-04-13", "popularity": 3.0249431096116401, "original_title": "Living With Lincoln", "backdrop_path": "/p0SjYtM7cHFyNa8ezKi2epfaZzY.jpg", "vote_count": 0, "video": false, "adult": false, "vote_average": 0.0, "id": 332816}, {"poster_path": "/va2AjZjfYqdsaNQfNgpLQcdc11l.jpg", "title": "Clouds of Sils Maria", "release_date": "2015-04-10", "popularity": 2.96149439253431, "original_title": "Clouds of Sils Maria", "backdrop_path": "/kzx4nxrcTBoSH9QMF1qcafVH0W.jpg", "vote_count": 34, "video": false, "adult": false, "vote_average": 6.9000000000000004, "id": 246860}, {"poster_path": "/fCTJLHK5NUJoNmFDXIHab4PWh0w.jpg", "title": "1915", "release_date": "2015-04-13", "popularity": 2.8858467621054902, "original_title": "1915", "backdrop_path": null, "vote_count": 0, "video": false, "adult": false, "vote_average": 0.0, "id": 332286}, {"poster_path": "/xv0aDvKbepA9slU9jL2boLQEANm.jpg", "title": "From the Dark", "release_date": "2015-04-14", "popularity": 1.8312735248523799, "original_title": "From the Dark", "backdrop_path": "/wIosXxBYpR6Tzj2UF3qgL67FpA9.jpg", "vote_count": 5, "video": false, "adult": false, "vote_average": 6.0, "id": 291865}]}