{"total_results": 50, "total_pages": 3, "page": 1, "results": [{"origin_country": ["US"], "poster_path": "/z2iR0vmuoEU5eL2ONwygDuzzlOy.jpg", "name": "Gotham", "popularity": 6.7282365557563502, "original_name": "Gotham", "id": 60708, "vote_average": 8.8000000000000007, "vote_count": 35, "first_air_date": "2014-09-22", "backdrop_path": "/bRFmBU0VPr9s1oeJHuS5Zb5nZQS.jpg"}, {"origin_country": ["US"], "poster_path": "/dDkTZMJHauC4IeO5YyLS7zuIPaP.jpg", "name": "The Originals", "popularity": 5.7439871256758002, "original_name": "The Originals", "id": 46896, "vote_average": 8.6999999999999993, "vote_count": 10, "first_air_date": "2013-10-03", "backdrop_path": "/c5xnCKjOcsCrq7BhJY2WFt9vu9Q.jpg"}, {"origin_country": ["US"], "poster_path": "/clZCrt3Fan4Gt99gsUwTzoIA5CF.jpg", "name": "The Following", "popularity": 3.6410731762156998, "original_name": "The Following", "id": 45094, "vote_average": 8.0, "vote_count": 15, "first_air_date": "2013-01-21", "backdrop_path": "/pDtI2GZq8phYjXu6frFpIrXBhKv.jpg"}, {"origin_country": ["US"], "poster_path": "/tIViOJS2eoDmktDEx29gXr3Ebhe.jpg", "name": "Scorpion", "popularity": 3.5658220940500698, "original_name": "Scorpion", "id": 60797, "vote_average": 7.0999999999999996, "vote_count": 13, "first_air_date": "2014-09-22", "backdrop_path": "/k8rwHWaLm32pVZjdUHZgTK5hE5w.jpg"}, {"origin_country": ["US"], "poster_path": "/oBwt9eMYBsfTuL70XYgexEvVz4n.jpg", "name": "Bates Motel", "popularity": 3.5583122840550101, "original_name": "Bates Motel", "id": 46786, "vote_average": 8.0999999999999996, "vote_count": 18, "first_air_date": "2013-03-18", "backdrop_path": "/je8EV3igz90jr1hq5uhPjFSukjj.jpg"}, {"origin_country": ["US"], "poster_path": "/faaVj7xQAdKaoRcqX2lBOFJvmiu.jpg", "name": "2 Broke Girls", "popularity": 3.5555495325374, "original_name": "2 Broke Girls", "id": 39340, "vote_average": 7.7999999999999998, "vote_count": 14, "first_air_date": "2011-09-19", "backdrop_path": "/3s06cmm5h2lhsJuoc0m8wdTK10e.jpg"}, {"origin_country": ["US"], "poster_path": "/vhhSPLOQLN1o2sSuvGDvi11WK5T.jpg", "name": "Jane the Virgin", "popularity": 3.4314294185213798, "original_name": "Jane the Virgin", "id": 61418, "vote_average": 5.5, "vote_count": 1, "first_air_date": "2014-10-13", "backdrop_path": "/3MqU52VIEeEfN03sWBcb7bdLkWw.jpg"}, {"origin_country": ["US"], "poster_path": "/dQ2eebGgPRmYRUB9Y5mgszhQICk.jpg", "name": "NCIS: Los Angeles", "popularity": 3.0667004992664801, "original_name": "NCIS: Los Angeles", "id": 17610, "vote_average": 7.4000000000000004, "vote_count": 13, "first_air_date": "2009-09-22", "backdrop_path": "/dQ8xZxtZtZTq74RjTycO1RKoqi0.jpg"}, {"origin_country": ["US"], "poster_path": "/2ZYW4bNtwFqglKfYrOBrEuRdpbC.jpg", "name": "The Returned", "popularity": 2.6222779520830302, "original_name": "The Returned", "id": 62142, "vote_average": 4.2000000000000002, "vote_count": 5, "first_air_date": "2015-03-09", "backdrop_path": "/9ahGfRL80yazJFljGumxJSrOMLQ.jpg"}, {"origin_country": ["US"], "poster_path": "/bsrxFiPYn7ZdBXbPk03kEsAaIiD.jpg", "name": "The Night Shift", "popularity": 2.486434180047, "original_name": "The Night Shift", "id": 60804, "vote_average": 8.3000000000000007, "vote_count": 3, "first_air_date": "2014-05-27", "backdrop_path": "/bxCFarQAXuoiM8ux8XQTBrbaTcK.jpg"}, {"origin_country": ["GB"], "poster_path": "/qXQKXLcYQstn9Cr6xC90CzXEZ7i.jpg", "name": "Code of a Killer", "popularity": 2.4784662966020701, "original_name": "Code of a Killer", "id": 62208, "vote_average": 0.0, "vote_count": 0, "first_air_date": "2015-04-06", "backdrop_path": "/8on8fTgUGtNe18oz16Q15quphcg.jpg"}, {"origin_country": ["US"], "poster_path": "/Bmp9XZdC9Zawv1OzJPP9LLd07o.jpg", "name": "TURN: Washington's Spies", "popularity": 2.4503913283563401, "original_name": "TURN: Washington's Spies", "id": 57276, "vote_average": 9.0, "vote_count": 1, "first_air_date": "2014-04-06", "backdrop_path": "/x4YaMRVXtG6s56DR7ubqtWaXmsH.jpg"}, {"origin_country": ["US"], "poster_path": "/agMXMZXLNATw4wPCu4wqo7zQdaJ.jpg", "name": "The Late Late Show with James Corden", "popularity": 2.0797731549593599, "original_name": "The Late Late Show with James Corden", "id": 62223, "vote_average": 0.0, "vote_count": 0, "first_air_date": "2015-03-23", "backdrop_path": "/r7546EScwYBLPlIxi9cEGcrPeJZ.jpg"}, {"origin_country": ["US"], "poster_path": "/mg1hpjHND9mjaduYA2VrOuxFu6s.jpg", "name": "Star vs. The Forces of Evil", "popularity": 2.04735559688267, "original_name": "Star vs. The Forces of Evil", "id": 61923, "vote_average": 0.0, "vote_count": 0, "first_air_date": "2015-01-18", "backdrop_path": "/eYpVVloDH4UZYi0NbGADZoGcdX7.jpg"}, {"origin_country": ["US"], "poster_path": "/xck8HXzV7t078Z87FODqkI1NRDn.jpg", "name": "RuPaul's Drag Race", "popularity": 2.01492713562341, "original_name": "RuPaul's Drag Race", "id": 8514, "vote_average": 4.0, "vote_count": 2, "first_air_date": "2009-02-02", "backdrop_path": "/ryonMQagJnDEhqPHnPzPVpA3RFA.jpg"}, {"origin_country": ["GB"], "poster_path": "/ixV3eiHmvK17SlHIAr5mTFmHPUF.jpg", "name": "Raised by Wolves", "popularity": 1.7018884303796999, "original_name": "Raised by Wolves", "id": 62160, "vote_average": 0.0, "vote_count": 0, "first_air_date": "2015-03-16", "backdrop_path": "/lclhzfj3c6h6s3LULDiea1JZWKW.jpg"}, {"origin_country": ["FR"], "poster_path": "/xCjDxSMcjEiIKUBO9MS8jVMJJMP.jpg", "name": "Spotless", "popularity": 1.5166386409167401, "original_name": "Spotless", "id": 62202, "vote_average": 0.0, "vote_count": 0, "first_air_date": "2015-03-16", "backdrop_path": "/rC3JcPDaDgVhXLodCkVKRGV3nXk.jpg"}, {"origin_country": ["GB"], "poster_path": "/xg3yO94wqrjt38C9J13D6sUi53e.jpg", "name": "Made in Chelsea", "popularity": 1.48649646835746, "original_name": "Made in Chelsea", "id": 39148, "vote_average": 0.0, "vote_count": 0, "first_air_date": "2011-05-09", "backdrop_path": "/8jNUyCZUPnA8L7VmQ7FKI5RrXtA.jpg"}, {"origin_country": ["GB"], "poster_path": "/szsvF2EtTvGF52M3gV7w8N4iXfu.jpg", "name": "Travel Man: 48 Hours in...", "popularity": 1.47361855191452, "original_name": "Travel Man: 48 Hours in...", "id": 62247, "vote_average": 0.0, "vote_count": 0, "first_air_date": "2015-03-30", "backdrop_path": "/9WtZxpTtq0K1ZmpQ0JkoyQeOl1r.jpg"}, {"origin_country": ["US"], "poster_path": "/rdYWx82CqYQNhxQvupSKaFj6020.jpg", "name": "Teen Mom", "popularity": 1.44096423444578, "original_name": "Teen Mom", "id": 31559, "vote_average": 2.0, "vote_count": 1, "first_air_date": "2009-12-08", "backdrop_path": "/6QusDJjiw4ufyakxm7uRQrksMQu.jpg"}]}