{"total_results": 3004, "total_pages": 151, "page": 1, "results": [{"poster_path": "/lIv1QinFqz4dlp5U4lQ6HaiskOZ.jpg", "title": "Whiplash", "release_date": "2014-10-10", "popularity": 9.7244086660484399, "original_title": "Whiplash", "backdrop_path": "/6bbZ6XyvgfjhQwbplnUh1LSj1ky.jpg", "vote_count": 629, "video": false, "adult": false, "vote_average": 8.5999999999999996, "id": 244786}, {"poster_path": "/4XFN435sO7t9sMiWGMtWcV9qfmq.jpg", "title": "Feast", "release_date": "2014-11-07", "popularity": 1.40456552323646, "original_title": "Feast", "backdrop_path": "/60cvl34Go8dvtDiHs9L82a79VXm.jpg", "vote_count": 63, "video": false, "adult": false, "vote_average": 8.5, "id": 293299}, {"poster_path": "/nBNZadXqJSdt05SHLqgT0HuC5Gm.jpg", "title": "Interstellar", "release_date": "2014-11-05", "popularity": 37.143460358745202, "original_title": "Interstellar", "backdrop_path": "/xu9zaAevzQ5nnrsXN6JcahLnG4i.jpg", "vote_count": 1935, "video": false, "adult": false, "vote_average": 8.5, "id": 157336}, {"poster_path": "/xBo8dd2zUbMvcypwScDN3mpN7IZ.jpg", "title": "Paperman", "release_date": "2012-11-02", "popularity": 1.4040759492753001, "original_title": "Paperman", "backdrop_path": "/cqn1ynw78Wan37jzs1Ckm7va97G.jpg", "vote_count": 145, "video": false, "adult": false, "vote_average": 8.4000000000000004, "id": 140420}, {"poster_path": "/n9lGm7N1MHwNVlYgQG6kGV8bRYE.jpg", "title": "Mommy", "release_date": "2014-09-19", "popularity": 1.91696605675109, "original_title": "Mommy", "backdrop_path": "/e1JukFYKIahB9L0IrLJpa03IarG.jpg", "vote_count": 87, "video": false, "adult": false, "vote_average": 8.4000000000000004, "id": 265177}, {"poster_path": "/qiJJQ797PwvUO2FsTh0Axn5srzj.jpg", "title": "The Tale of the Princess Kaguya", "release_date": "2013-11-23", "popularity": 1.82901172957234, "original_title": "Kaguya Hime no Monogatari", "backdrop_path": "/uIhEU2VUVgez3tKyPmMG9pf1q0g.jpg", "vote_count": 57, "video": false, "adult": false, "vote_average": 8.4000000000000004, "id": 149871}, {"poster_path": "/A2rxR8g3y6kcjIoR2fcwtq9eppc.jpg", "title": "Presto", "release_date": "2008-06-26", "popularity": 1.2377253752466899, "original_title": "Presto", "backdrop_path": "/sFQ10h9DnjOYIF4HjtLQuZ8pnb4.jpg", "vote_count": 154, "video": false, "adult": false, "vote_average": 8.3000000000000007, "id": 13042}, {"poster_path": "/9gm3lL8JMTTmc3W4BmNMCuRLdL8.jpg", "title": "Guardians of the Galaxy", "release_date": "2014-08-01", "popularity": 11.6218228549617, "original_title": "Guardians of the Galaxy", "backdrop_path": "/bHarw8xrmQeqf3t8HpuMY7zoK4x.jpg", "vote_count": 2358, "video": false, "adult": false, "vote_average": 8.1999999999999993, "id": 118340}, {"poster_path": "/rDMxjCYEVnvLC4nsBpB6wjL0LDy.jpg", "title": "Wolf Children", "release_date": "2012-08-29", "popularity": 1.2276903697088899, "original_title": "Ookami kodomo no Ame to Yuki", "backdrop_path": "/1Y66fi0srOb0ijAOg069DXriD3S.jpg", "vote_count": 59, "video": false, "adult": false, "vote_average": 8.1999999999999993, "id": 110420}, {"poster_path": "/noUp0XOqIcmgefRnRZa1nhtRvWO.jpg", "title": "The Imitation Game", "release_date": "2014-11-14", "popularity": 13.819059774040801, "original_title": "The Imitation Game", "backdrop_path": "/hctIo3ugW79kzV6F9d6A1sMIAyP.jpg", "vote_count": 899, "video": false, "adult": false, "vote_average": 8.1999999999999993, "id": 205596}, {"poster_path": "/yUInNNpBUBJmn5TgUehCEOGmZDg.jpg", "title": "On the Waterfront", "release_date": "1954-06-22", "popularity": 0.86503899484937596, "original_title": "On the Waterfront", "backdrop_path": "/zXp2ydvhO9qGzpIsb1CWeKnn5yg.jpg", "vote_count": 50, "video": false, "adult": false, "vote_average": 8.1999999999999993, "id": 654}, {"poster_path": "/9O7gLzmreU0nGkIB6K3BsJbzvNv.jpg", "title": "The Shawshank Redemption", "release_date": "1994-09-14", "popularity": 3.6121323848418401, "original_title": "The Shawshank Redemption", "backdrop_path": "/xBKGJQsAIeweesB79KC89FpBrVr.jpg", "vote_count": 3732, "video": false, "adult": false, "vote_average": 8.1999999999999993, "id": 278}, {"poster_path": "/qcL1YfkCxfhsdO6sDDJ0PpzMF9n.jpg", "title": "12 Angry Men", "release_date": "1957-04-10", "popularity": 2.0166686903514699, "original_title": "12 Angry Men", "backdrop_path": "/lH2Ga8OzjU1XlxJ73shOlPx6cRw.jpg", "vote_count": 636, "video": false, "adult": false, "vote_average": 8.0999999999999996, "id": 389}, {"poster_path": "/wYkiNNMM1O5c2yEcj8Lf9UbaB1a.jpg", "title": "Short Term 12", "release_date": "2013-08-23", "popularity": 1.54980351491998, "original_title": "Short Term 12", "backdrop_path": "/ddlMODFJUjvhzrymuW7O7KPuhVL.jpg", "vote_count": 106, "video": false, "adult": false, "vote_average": 8.0999999999999996, "id": 169813}, {"poster_path": "/5pQlc8dp5dXzWg1yM70DZrsDpOl.jpg", "title": "8\u00bd", "release_date": "1963-02-15", "popularity": 0.93336657596185102, "original_title": "8\u00bd", "backdrop_path": "/4v3TyHFbKY42g9bFiEZXUIQHpAR.jpg", "vote_count": 75, "video": false, "adult": false, "vote_average": 8.0999999999999996, "id": 422}, {"poster_path": "/d4KNaTrltq6bpkFS01pYtyXa09m.jpg", "title": "The Godfather", "release_date": "1972-03-15", "popularity": 4.2540775017046197, "original_title": "The Godfather", "backdrop_path": "/6xKCYgH16UuwEGAyroLU6p8HLIn.jpg", "vote_count": 2362, "video": false, "adult": false, "vote_average": 8.0999999999999996, "id": 238}, {"poster_path": "/sc6XLX6J714LDkVV3Ys3clgypQS.jpg", "title": "The Fault in Our Stars", "release_date": "2014-05-16", "popularity": 2.7978946571312999, "original_title": "The Fault in Our Stars", "backdrop_path": "/hZWp4W5aQvGm1WiiGFYIuBUOQ3K.jpg", "vote_count": 893, "video": false, "adult": false, "vote_average": 8.0999999999999996, "id": 222935}, {"poster_path": "/5hqbJSmtAimbaP3XcYshCixuUtk.jpg", "title": "Seven Samurai", "release_date": "1954-04-26", "popularity": 1.35271439713446, "original_title": "\u4e03\u4eba\u306e\u4f8d", "backdrop_path": "/61vLiK96sbXeHpQiMxI4CuqBA3z.jpg", "vote_count": 247, "video": false, "adult": false, "vote_average": 8.0999999999999996, "id": 346}, {"poster_path": "/4mFsNQwbD0F237Tx7gAPotd0nbJ.jpg", "title": "The Intouchables", "release_date": "2011-11-02", "popularity": 2.6434090715035499, "original_title": "Intouchables", "backdrop_path": "/ihWaJZCUIon2dXcosjQG2JHJAPN.jpg", "vote_count": 1369, "video": false, "adult": false, "vote_average": 8.0999999999999996, "id": 77338}, {"poster_path": "/ur6BmIy835Y62eb7AmUqHeRHo0a.jpg", "title": "The B\u00e9lier Family", "release_date": "2014-12-17", "popularity": 0.65157020086988504, "original_title": "La Famille B\u00e9lier", "backdrop_path": "/vOaY7zjo2rhrZivwOt3sxcDHbhu.jpg", "vote_count": 66, "video": false, "adult": false, "vote_average": 8.0, "id": 304410}]}